tests/fixtures/wave.vcd
$version Generated by VerilatedVcd $end
$timescale 1ps $end
 $scope module TOP $end
  $var wire 1 h io_input_valid $end
  $var wire 1 i io_input_ready $end
  $var wire 1 j io_input_payload_last $end
  $var wire 16 k io_input_payload_fragment_value_0 [15:0] $end
  $var wire 1 l io_output_valid $end
  $var wire 1 m io_output_ready $end
  $var wire 1 n io_output_payload_last $end
  $var wire 1 o io_output_payload_fragment_value_0 [0:0] $end
  $var wire 1 p clk $end
  $var wire 1 q reset $end
  $scope module Accelerator $end
   $var wire 1 h io_input_valid $end
   $var wire 1 r io_input_ready $end
   $var wire 1 j io_input_payload_last $end
   $var wire 16 k io_input_payload_fragment_value_0 [15:0] $end
   $var wire 1 l io_output_valid $end
   $var wire 1 m io_output_ready $end
   $var wire 1 5 io_output_payload_last $end
   $var wire 1 o io_output_payload_fragment_value_0 [0:0] $end
   $var wire 1 p clk $end
   $var wire 1 q reset $end
   $var wire 1 r neuron_1_i_ready $end
   $var wire 1 l neuron_1_o_valid $end
   $var wire 1 5 neuron_1_o_payload_last $end
   $var wire 1 o neuron_1_o_payload_fragment_value_0 [0:0] $end
   $var wire 32 #! configTimestamp [31:0] $end
   $scope module neuron_1 $end
    $var wire 1 s i_valid $end
    $var wire 1 r i_ready $end
    $var wire 1 t i_payload_last $end
    $var wire 16 u i_payload_fragment_value_0 [15:0] $end
    $var wire 1 l o_valid $end
    $var wire 1 m o_ready $end
    $var wire 1 v o_payload_last $end
    $var wire 1 w o_payload_fragment_value_0 [0:0] $end
    $var wire 1 p clk $end
    $var wire 1 q reset $end
    $var wire 1 # leak_1_i_ready $end
    $var wire 1 F leak_1_o_valid $end
    $var wire 16 6 leak_1_o_payload [15:0] $end
    $var wire 1 $ when_Phase_l774 $end
    $var wire 1 G pipelined_valid $end
    $var wire 1 % pipelined_ready $end
    $var wire 1 5 pipelined_payload_last $end
    $var wire 16 7 pipelined_payload_fragment_value_0 [15:0] $end
    $var wire 1 G i_rValid $end
    $var wire 1 5 i_rData_last $end
    $var wire 16 7 i_rData_fragment_value_0 [15:0] $end
    $var wire 1 H when_Stream_l448 $end
    $var wire 1 & pipelined_fire $end
    $var wire 1 x when_Utils_l593 $end
    $var wire 1 y timestep_willIncrement $end
    $var wire 1 $! timestep_willClear $end
    $var wire 7 z timestep_valueNext [6:0] $end
    $var wire 7 I timestep_value [6:0] $end
    $var wire 1 J timestep_willOverflowIfInc $end
    $var wire 1 { timestep_willOverflow $end
    $var wire 16 | debug_mem_probe_0_value_0 [15:0] $end
    $var wire 7 } debug_mem_probe_0_lastUpdated [6:0] $end
    $var wire 1 K forRead_valid $end
    $var wire 1 ' forRead_ready $end
    $var wire 1 5 forRead_payload_last $end
    $var wire 16 7 forRead_payload_fragment_value_0 [15:0] $end
    $var wire 1 L forPreserve_valid $end
    $var wire 1 ( forPreserve_ready $end
    $var wire 1 5 forPreserve_payload_last $end
    $var wire 16 7 forPreserve_payload_fragment_value_0 [15:0] $end
    $var wire 1 M pipelined_fork2_logic_linkEnable_0 $end
    $var wire 1 N pipelined_fork2_logic_linkEnable_1 $end
    $var wire 1 ) when_Stream_l1186 $end
    $var wire 1 * when_Stream_l1186_1 $end
    $var wire 1 + forRead_fire $end
    $var wire 1 , forPreserve_fire $end
    $var wire 1 K addressStream_valid $end
    $var wire 1 ' addressStream_ready $end
    $var wire 1 O currStateStream_valid $end
    $var wire 1 - currStateStream_ready $end
    $var wire 16 8 currStateStream_payload_value_0 [15:0] $end
    $var wire 7 9 currStateStream_payload_lastUpdated [6:0] $end
    $var wire 1 + addressStream_fire $end
    $var wire 1 ' currStateStream_isFree $end
    $var wire 1 P currStateStream_fork2_outputs_0_valid $end
    $var wire 1 . currStateStream_fork2_outputs_0_ready $end
    $var wire 16 8 currStateStream_fork2_outputs_0_payload_value_0 [15:0] $end
    $var wire 7 9 currStateStream_fork2_outputs_0_payload_lastUpdated [6:0] $end
    $var wire 1 Q currStateStream_fork2_outputs_1_valid $end
    $var wire 1 # currStateStream_fork2_outputs_1_ready $end
    $var wire 16 8 currStateStream_fork2_outputs_1_payload_value_0 [15:0] $end
    $var wire 7 9 currStateStream_fork2_outputs_1_payload_lastUpdated [6:0] $end
    $var wire 1 R currStateStream_fork2_logic_linkEnable_0 $end
    $var wire 1 S currStateStream_fork2_logic_linkEnable_1 $end
    $var wire 1 / when_Stream_l1186_2 $end
    $var wire 1 0 when_Stream_l1186_3 $end
    $var wire 1 1 currStateStream_fork2_outputs_0_fire $end
    $var wire 1 2 currStateStream_fork2_outputs_1_fire $end
    $var wire 1 Q currStateStream_fork2_outputs_1_map_valid $end
    $var wire 1 # currStateStream_fork2_outputs_1_map_ready $end
    $var wire 7 Z currStateStream_fork2_outputs_1_map_payload [6:0] $end
    $var wire 1 P currStateStream_fork2_outputs_0_map_valid $end
    $var wire 1 . currStateStream_fork2_outputs_0_map_ready $end
    $var wire 16 8 currStateStream_fork2_outputs_0_map_payload_0 [15:0] $end
    $var wire 1 T stateAndLeak_valid $end
    $var wire 1 ( stateAndLeak_ready $end
    $var wire 16 8 stateAndLeak_payload_1_0 [15:0] $end
    $var wire 16 6 stateAndLeak_payload_2 [15:0] $end
    $var wire 1 . stateAndLeak_fire $end
    $var wire 1 l joined_valid $end
    $var wire 1 m joined_ready $end
    $var wire 16 8 joined_payload_1_1_0 [15:0] $end
    $var wire 16 6 joined_payload_1_2 [15:0] $end
    $var wire 1 5 joined_payload_2_last $end
    $var wire 16 7 joined_payload_2_fragment_value_0 [15:0] $end
    $var wire 1 ( joined_fire $end
    $var wire 16 %! inputFactor [15:0] $end
    $var wire 16 &! threshold [15:0] $end
    $var wire 1 l computed_valid $end
    $var wire 1 m computed_ready $end
    $var wire 33 ~ computed_payload_1_0 [32:0] $end
    $var wire 1 o computed_payload_2_0 [0:0] $end
    $var wire 1 5 computed_payload_3_last $end
    $var wire 16 7 computed_payload_3_fragment_value_0 [15:0] $end
    $var wire 1 ( computed_toFlowFire_valid $end
    $var wire 33 ~ computed_toFlowFire_payload_1_0 [32:0] $end
    $var wire 1 o computed_toFlowFire_payload_2_0 [0:0] $end
    $var wire 1 5 computed_toFlowFire_payload_3_last $end
    $var wire 16 7 computed_toFlowFire_payload_3_fragment_value_0 [15:0] $end
    $var wire 1 ( computed_fire $end
    $var wire 1 ( computed_toFlowFire_map_valid $end
    $var wire 16 "! computed_toFlowFire_map_payload_data_value_0 [15:0] $end
    $var wire 7 I computed_toFlowFire_map_payload_data_lastUpdated [6:0] $end
    $scope module leak_1 $end
     $var wire 1 Q i_valid $end
     $var wire 1 # i_ready $end
     $var wire 7 Z i_payload [6:0] $end
     $var wire 1 F o_valid $end
     $var wire 1 . o_ready $end
     $var wire 16 6 o_payload [15:0] $end
     $var wire 1 p clk $end
     $var wire 1 q reset $end
     $var wire 1 Q coefficients_valid $end
     $var wire 1 # coefficients_ready $end
     $var wire 16 [ coefficients_payload_0 [15:0] $end
     $var wire 16 \ coefficients_payload_1 [15:0] $end
     $var wire 16 ] coefficients_payload_2 [15:0] $end
     $var wire 16 ^ coefficients_payload_3 [15:0] $end
     $var wire 16 _ coefficients_payload_4 [15:0] $end
     $var wire 16 ` coefficients_payload_5 [15:0] $end
     $var wire 16 a coefficients_payload_6 [15:0] $end
     $var wire 1 b when_AFix_l766 $end
     $var wire 1 $! when_AFix_l771 $end
     $var wire 1 c when_AFix_l766_1 $end
     $var wire 1 $! when_AFix_l771_1 $end
     $var wire 1 d when_AFix_l766_2 $end
     $var wire 1 $! when_AFix_l771_2 $end
     $var wire 1 Q coefficients_map_valid $end
     $var wire 1 # coefficients_map_ready $end
     $var wire 16 e coefficients_map_payload_0 [15:0] $end
     $var wire 16 f coefficients_map_payload_1 [15:0] $end
     $var wire 16 g coefficients_map_payload_2 [15:0] $end
     $var wire 16 a coefficients_map_payload_3 [15:0] $end
     $var wire 1 U stage1_valid $end
     $var wire 1 3 stage1_ready $end
     $var wire 16 : stage1_payload_0 [15:0] $end
     $var wire 16 ; stage1_payload_1 [15:0] $end
     $var wire 16 < stage1_payload_2 [15:0] $end
     $var wire 16 = stage1_payload_3 [15:0] $end
     $var wire 1 U coefficients_map_rValid $end
     $var wire 16 : coefficients_map_rData_0 [15:0] $end
     $var wire 16 ; coefficients_map_rData_1 [15:0] $end
     $var wire 16 < coefficients_map_rData_2 [15:0] $end
     $var wire 16 = coefficients_map_rData_3 [15:0] $end
     $var wire 1 V when_Stream_l448 $end
     $var wire 1 > when_AFix_l766_3 $end
     $var wire 1 $! when_AFix_l771_3 $end
     $var wire 1 ? when_AFix_l766_4 $end
     $var wire 1 $! when_AFix_l771_4 $end
     $var wire 1 U stage1_map_valid $end
     $var wire 1 3 stage1_map_ready $end
     $var wire 16 @ stage1_map_payload_0 [15:0] $end
     $var wire 16 A stage1_map_payload_1 [15:0] $end
     $var wire 1 W stage2_valid $end
     $var wire 1 4 stage2_ready $end
     $var wire 16 B stage2_payload_0 [15:0] $end
     $var wire 16 C stage2_payload_1 [15:0] $end
     $var wire 1 W stage1_map_rValid $end
     $var wire 16 B stage1_map_rData_0 [15:0] $end
     $var wire 16 C stage1_map_rData_1 [15:0] $end
     $var wire 1 X when_Stream_l448_1 $end
     $var wire 1 D when_AFix_l766_5 $end
     $var wire 1 $! when_AFix_l771_5 $end
     $var wire 1 W stage2_map_valid $end
     $var wire 1 4 stage2_map_ready $end
     $var wire 16 E stage2_map_payload_0 [15:0] $end
     $var wire 1 F stage3_valid $end
     $var wire 1 . stage3_ready $end
     $var wire 16 6 stage3_payload_0 [15:0] $end
     $var wire 1 F stage2_map_rValid $end
     $var wire 16 6 stage2_map_rData_0 [15:0] $end
     $var wire 1 Y when_Stream_l448_2 $end
     $var wire 1 F stage3_map_valid $end
     $var wire 1 . stage3_map_ready $end
     $var wire 16 6 stage3_map_payload [15:0] $end
    $upscope $end
   $upscope $end
  $upscope $end
 $upscope $end
$enddefinitions $end


#0
1#
0$
0%
0&
1'
0(
0)
1*
0+
0,
0-
0.
1/
00
01
02
13
14
15
b0110111000000010 6
b0011101110101100 7
b1110001111110001 8
b1111110 9
b0011010001100110 :
b0001001101000101 ;
b0000000010000110 <
b0000000000011011 =
0>
0?
b0000111111000110 @
b0000000000000000 A
b0111100011011100 B
b1111111111111111 C
1D
b1111111111111111 E
0F
0G
1H
b0000000 I
0J
0K
0L
1M
1N
0O
0P
0Q
1R
1S
0T
0U
1V
0W
1X
1Y
b0000010 Z
b0100000000000000 [
b0011010001100110 \
b0100000000000000 ]
b0100000000000000 ^
b0100000000000000 _
b0100000000000000 `
b0100000000000000 a
0b
0c
0d
b0011010001100110 e
b0100000000000000 f
b0100000000000000 g
1h
1i
1j
b1110000000000011 k
0l
1m
1n
1o
0p
1q
1r
1s
1t
b1110000000000011 u
1v
1w
0x
0y
b0000000 z
0{
b1110001111110001 |
b1111110 }
b000000000000000000000000000000000 ~
b0000000000000000 "!
b01101001010001000100111111011001 #!
0$!
b0000011001100110 %!
b0100000000000000 &!
#10
0h
b1110010011001100 k
0s
b1110010011001100 u
#32
0q
#34
b1111111111111111 6
b1110010011001100 7
b0100000000000000 ;
b0100000000000000 <
b0100000000000000 =
b0011010001100110 @
b0100000000000000 A
b0000111111000110 B
b0000000000000000 C
0D
b0000000000000000 E
1p
b0000000000000000 |
b0000000 }
#35
0p
#36
b0000000000000000 6
b0011010001100110 B
b0100000000000000 C
b0011010001100110 E
0o
1p
0w
b000000101101101111111000101001000 ~
b0001011011011111 "!
#37
0p
#38
b0011010001100110 6
1o
1p
1w
b000000000000000000000000000000000 ~
b0000000000000000 "!
#39
0p
#40
1p
#41
0p
#42
1h
b0100110011001100 k
1p
1s
b0100110011001100 u
#43
0p
#44
1+
b0100110011001100 7
1G
0H
1K
1L
0i
1p
0r
#45
0p
#46
0'
0+
12
b0000000000000000 8
b0000000 9
0K
0M
1O
1P
1Q
b0000000 Z
b0100000000000000 \
b0100000000000000 e
0o
1p
0w
b000000001111010110110000101001000 ~
b0000011110101101 "!
#47
0p
#48
02
b0100000000000000 :
b0100000000000000 @
0Q
0S
1U
0V
1p
#49
0p
#50
b0100000000000000 B
b0100000000000000 E
0U
1V
1W
0X
1p
#51
0p
#52
1$
1%
1&
1'
1(
0*
1,
1-
1.
0/
11
b0100000000000000 6
1F
1T
0W
1X
0Y
1i
1l
1p
1r
1x
1y
b0000001 z
#53
0p
#54
0$
0%
0&
0(
1*
1+
0,
0-
0.
1/
01
0F
b0000001 I
1K
1M
0O
0P
1S
0T
1Y
b0000001 Z
b0011100111101000 [
b0011100111101000 e
0h
0i
b1001010000001111 k
0l
1p
0r
0s
b1001010000001111 u
0x
0y
#55
0p
#56
0'
0+
12
b0000011110101101 8
b0011100111101000 :
b0011100111101000 @
0K
0M
1O
1P
1Q
1p
b0000011110101101 |
b000000011110101101010000101001000 ~
b0000111101011010 "!
#57
0p
#58
02
b0011100111101000 B
b0011100111101000 E
0Q
0S
1U
0V
1p
#59
0p
#60
b0011100111101000 6
0U
1V
1W
0X
1p
b000000011101001111101101100010000 ~
b0000111010011111 "!
#61
0p
#62
1$
1%
1&
1'
1(
0*
1,
1-
1.
0/
11
1F
1T
0W
1X
0Y
1h
1i
b0100110011001100 k
1l
1p
1r
1s
b0100110011001100 u
1x
1y
b0000010 z
#63
0p
#64
0$
0%
0&
0(
1*
1+
0,
0-
0.
1/
01
0F
b0000010 I
1K
1M
0O
0P
1S
0T
1Y
b0000010 Z
b0100000000000000 [
b0011010001100110 \
b0011010001100110 e
0i
0l
1p
0r
0x
0y
#65
0p
#66
0'
0+
12
b0000111010011111 8
b0000001 9
b0011010001100110 :
b0011010001100110 @
0K
0M
1O
1P
1Q
b0000001 Z
b0011100111101000 [
b0100000000000000 \
b0011100111101000 e
1p
b0000111010011111 |
b0000001 }
b000000101001110100000100001100000 ~
b0001010011101000 "!
#67
0p
#68
02
b0011100111101000 :
b0011100111101000 @
b0011010001100110 B
b0011010001100110 E
0Q
0S
1U
0V
1p
#69
0p
#70
b0011010001100110 6
b0011100111101000 B
b0011100111101000 E
0U
1V
1W
0X
1p
b000000100111010011000000010100010 ~
b0001001110100110 "!
#71
0p
#72
1$
1%
1&
1'
1(
0*
1,
1-
1.
0/
11
b0011100111101000 6
1F
1T
0W
1X
0Y
1i
1l
1p
1r
1x
1y
b0000011 z
b000000101001110100000100001100000 ~
b0001010011101000 "!
#73
0p
#74
0$
0%
0&
0(
1*
1+
0,
0-
0.
1/
01
0F
b0000011 I
1K
1M
0O
0P
1S
0T
1Y
b0000010 Z
b0100000000000000 [
b0011010001100110 \
b0011010001100110 e
0i
0l
1p
0r
0x
0y
#75
0p
#76
0'
0+
12
b0001010011101000 8
b0000010 9
b0011010001100110 :
b0011010001100110 @
0K
0M
1O
1P
1Q
b0000001 Z
b0011100111101000 [
b0100000000000000 \
b0011100111101000 e
1p
b0001010011101000 |
b0000010 }
b000000110101001011111101110001000 ~
b0001101010010111 "!
#77
0p
#78
02
b0011100111101000 :
b0011100111101000 @
b0011010001100110 B
b0011010001100110 E
0Q
0S
1U
0V
1p
#79
0p
#80
b0011010001100110 6
b0011100111101000 B
b0011100111101000 E
0U
1V
1W
0X
1p
b000000110001100101101010110111000 ~
b0001100011001011 "!
#81
0p
#82
1$
1%
1&
1'
1(
0*
1,
1-
1.
0/
11
b0011100111101000 6
1F
1T
0W
1X
0Y
1i
1l
1p
1r
1x
1y
b0000100 z
b000000110101001011111101110001000 ~
b0001101010010111 "!
#83
0p
#84
0$
0%
0&
0(
1*
1+
0,
0-
0.
1/
01
0F
b0000100 I
1K
1M
0O
0P
1S
0T
1Y
b0000010 Z
b0100000000000000 [
b0011010001100110 \
b0011010001100110 e
0h
0i
0j
b1110110100011101 k
0l
1p
0r
0s
0t
b1110110100011101 u
0x
0y
#85
0p
#86
0'
0+
12
b0001101010010111 8
b0000011 9
b0011010001100110 :
b0011010001100110 @
0K
0M
1O
1P
1Q
b0000001 Z
b0011100111101000 [
b0100000000000000 \
b0011100111101000 e
1p
b0001101010010111 |
b0000011 }
b000000111111011110001100100100000 ~
b0001111110111100 "!
#87
0p
#88
02
b0011100111101000 :
b0011100111101000 @
b0011010001100110 B
b0011010001100110 E
0Q
0S
1U
0V
1p
#89
0p
#90
b0011010001100110 6
b0011100111101000 B
b0011100111101000 E
0U
1V
1W
0X
1p
b000000111010111001010010101110010 ~
b0001110101110010 "!
#91
0p
#92
1$
1%
1&
1'
1(
0*
1,
1-
1.
0/
11
b0011100111101000 6
1F
1T
0W
1X
0Y
1i
1l
1p
1r
1x
1y
b0000101 z
b000000111111011110001100100100000 ~
b0001111110111100 "!
#93
0p
#94
0$
0%
0&
0(
1*
0,
0-
0.
1/
01
05
b1110110100011101 7
0F
0G
1H
b0000101 I
0L
1M
0O
0P
1S
0T
1Y
b0000010 Z
b0100000000000000 [
b0011010001100110 \
b0011010001100110 e
0l
0n
1p
0v
0x
0y
b000001011111100001101111101100110 ~
b0010111111000011 "!
#95
0p
#96
b0011010001100110 :
b0011010001100110 @
1p
b0001111110111100 |
b0000100 }
#97
0p
#98
b0011010001100110 B
b0011010001100110 E
1h
1j
b0100110011001100 k
1p
1s
1t
b0100110011001100 u
#99
0p
#100
1+
15
b0011010001100110 6
b0100110011001100 7
1G
0H
1K
1L
0h
0i
0j
b1010010011110001 k
1n
1p
0r
0s
0t
b1010010011110001 u
1v
b000000111010111001010010101110010 ~
b0001110101110010 "!
#101
0p
#102
0'
0+
12
b0001111110111100 8
b0000100 9
0K
0M
1O
1P
1Q
b0000001 Z
b0011100111101000 [
b0100000000000000 \
b0011100111101000 e
1p
b000001000011010100011011000110000 ~
b0010000110101000 "!
#103
0p
#104
02
b0011100111101000 :
b0011100111101000 @
0Q
0S
1U
0V
1p
#105
0p
#106
b0011100111101000 B
b0011100111101000 E
0U
1V
1W
0X
1p
#107
0p
#108
1$
1%
1&
1'
1(
0*
1,
1-
1.
0/
11
b0011100111101000 6
1F
1T
0W
1X
0Y
1i
1l
1p
1r
1x
1y
b0000110 z
b000001001000110001111111110101000 ~
b0010010001100011 "!
#109
0p
#110
0$
0%
0&
0(
1*
0,
0-
0.
1/
01
05
b1010010011110001 7
0F
0G
1H
b0000110 I
0L
1M
0O
0P
1S
0T
1Y
b0000010 Z
b0100000000000000 [
b0011010001100110 \
b0011010001100110 e
0l
0n
1p
0v
0x
0y
b000001011010011001111110001100110 ~
b0010110100110011 "!
#111
0p
#112
b0011010001100110 :
b0011010001100110 @
1p
b0010010001100011 |
b0000101 }
#113
0p
#114
b0011010001100110 B
b0011010001100110 E
1p
#115
0p
#116
b0011010001100110 6
1p
b000001010100111100011001011101110 ~
b0010101001111000 "!
#117
0p
#118
1h
1j
b0100110011001100 k
1p
1s
1t
b0100110011001100 u
#119
0p
#120
1+
15
b0100110011001100 7
1G
0H
1K
1L
0h
0i
0j
b1010110010110001 k
1n
1p
0r
0s
0t
b1010110010110001 u
1v
b000001000011010100011011000110000 ~
b0010000110101000 "!
#121
0p
#122
0'
0+
12
b0010010001100011 8
b0000101 9
0K
0M
1O
1P
1Q
b0000001 Z
b0011100111101000 [
b0100000000000000 \
b0011100111101000 e
1p
b000001001010111011111110010111010 ~
b0010010101110111 "!
#123
0p
#124
02
b0011100111101000 :
b0011100111101000 @
0Q
0S
1U
0V
1p
#125
0p
#126
b0011100111101000 B
b0011100111101000 E
0U
1V
1W
0X
1h
1j
b0100110011001100 k
1p
1s
1t
b0100110011001100 u
#127
0p
#128
1$
1%
1&
1'
1(
0*
1,
1-
1.
0/
11
b0011100111101000 6
1F
1T
0W
1X
0Y
1i
1l
1p
1r
1x
1y
b0000111 z
b000001010001001100110011000000000 ~
b0010100010011001 "!
#129
0p
#130
0$
0%
0&
0(
1*
1+
0,
0-
0.
1/
01
0F
b0000111 I
1K
1M
0O
0P
1S
0T
1Y
b0000010 Z
b0100000000000000 [
b0011010001100110 \
b0011010001100110 e
0h
0i
0j
b1001111110101101 k
0l
1p
0r
0s
0t
b1001111110101101 u
0x
0y
#131
0p
#132
0'
0+
12
b0010100010011001 8
b0000110 9
b0011010001100110 :
b0011010001100110 @
0K
0M
1O
1P
1Q
b0000001 Z
b0011100111101000 [
b0100000000000000 \
b0011100111101000 e
1p
b0010100010011001 |
b0000110 }
b000001011000110100011110011110000 ~
b0010110001101000 "!
#133
0p
#134
02
b0011100111101000 :
b0011100111101000 @
b0011010001100110 B
b0011010001100110 E
0Q
0S
1U
0V
1p
#135
0p
#136
b0011010001100110 6
b0011100111101000 B
b0011100111101000 E
0U
1V
1W
0X
1p
b000001010001110101010001000111110 ~
b0010100011101010 "!
#137
0p
#138
1$
1%
1&
1'
1(
0*
1,
1-
1.
0/
11
b0011100111101000 6
1F
1T
0W
1X
0Y
1i
1l
1p
1r
1x
1y
b0001000 z
b000001011000110100011110011110000 ~
b0010110001101000 "!
#139
0p
#140
0$
0%
0&
0(
1*
0,
0-
0.
1/
01
05
b1001111110101101 7
0F
0G
1H
b0001000 I
0L
1M
0O
0P
1S
0T
1Y
b0000010 Z
b0100000000000000 [
b0011010001100110 \
b0011010001100110 e
0l
0n
1p
0v
0x
0y
b000001101001011001000100010010110 ~
b0011010010110010 "!
#141
0p
#142
b0011010001100110 :
b0011010001100110 @
1p
b0010110001101000 |
b0000111 }
#143
0p
#144
b0011010001100110 B
b0011010001100110 E
1p
#145
0p
#146
b0011010001100110 6
1p
b000001100010011001110110111100100 ~
b0011000100110011 "!
#147
0p
#148
1h
1j
b0100110011001100 k
1p
1s
1t
b0100110011001100 u
#149
0p
#150
1+
15
b0100110011001100 7
1G
0H
1K
1L
0i
1n
1p
0r
1v
b000001010001110101010001000111110 ~
b0010100011101010 "!
#151
0p
#152
0'
0+
12
b0010110001101000 8
b0000111 9
0K
0M
1O
1P
1Q
b0000001 Z
b0011100111101000 [
b0100000000000000 \
b0011100111101000 e
1p
b000001011000000100011001010111000 ~
b0010110000001000 "!
#153
0p
#154
02
b0011100111101000 :
b0011100111101000 @
0Q
0S
1U
0V
1p
#155
0p
#156
b0011100111101000 B
b0011100111101000 E
0U
1V
1W
0X
1p
#157
0p
#158
1$
1%
1&
1'
1(
0*
1,
1-
1.
0/
11
b0011100111101000 6
1F
1T
0W
1X
0Y
1i
1l
1p
1r
1x
1y
b0001001 z
b000001011111101101100011110001000 ~
b0010111111011011 "!
#159
0p
#160
0$
0%
0&
0(
1*
1+
0,
0-
0.
1/
01
0F
b0001001 I
1K
1M
0O
0P
1S
0T
1Y
b0000010 Z
b0100000000000000 [
b0011010001100110 \
b0011010001100110 e
0i
0l
1p
0r
0x
0y
#161
0p
#162
0'
0+
12
b0010111111011011 8
b0001000 9
b0011010001100110 :
b0011010001100110 @
0K
0M
1O
1P
1Q
b0000001 Z
b0011100111101000 [
b0100000000000000 \
b0011100111101000 e
1p
b0010111111011011 |
b0001000 }
b000001100101111101000001011000000 ~
b0011001011111010 "!
#163
0p
#164
02
b0011100111101000 :
b0011100111101000 @
b0011010001100110 B
b0011010001100110 E
0Q
0S
1U
0V
1p
#165
0p
#166
b0011010001100110 6
b0011100111101000 B
b0011100111101000 E
0U
1V
1W
0X
1p
b000001011101101101110111010001010 ~
b0010111011011011 "!
#167
0p
#168
1$
1%
1&
1'
1(
0*
1,
1-
1.
0/
11
b0011100111101000 6
1F
1T
0W
1X
0Y
1i
1l
1p
1r
1x
1y
b0001010 z
b000001100101111101000001011000000 ~
b0011001011111010 "!
#169
0p
#170
0$
0%
0&
0(
1*
1+
0,
0-
0.
1/
01
0F
b0001010 I
1K
1M
0O
0P
1S
0T
1Y
b0000010 Z
b0100000000000000 [
b0011010001100110 \
b0011010001100110 e
0h
0i
b1100000010011010 k
0l
1p
0r
0s
b1100000010011010 u
0x
0y
#171
0p
#172
0'
0+
12
b0011001011111010 8
b0001001 9
b0011010001100110 :
b0011010001100110 @
0K
0M
1O
1P
1Q
b0000001 Z
b0011100111101000 [
b0100000000000000 \
b0011100111101000 e
1p
b0011001011111010 |
b0001001 }
b000001101011100110011110111011000 ~
b0011010111001100 "!
#173
0p
#174
02
b0011100111101000 :
b0011100111101000 @
b0011010001100110 B
b0011010001100110 E
0Q
0S
1U
0V
1p
#175
0p
#176
b0011010001100110 6
b0011100111101000 B
b0011100111101000 E
0U
1V
1W
0X
1h
b0100110011001100 k
1p
1s
b0100110011001100 u
b000001100010110100111100011100100 ~
b0011000101101001 "!
#177
0p
#178
1$
1%
1&
1'
1(
0*
1,
1-
1.
0/
11
b0011100111101000 6
1F
1T
0W
1X
0Y
1i
1l
1p
1r
1x
1y
b0001011 z
b000001101011100110011110111011000 ~
b0011010111001100 "!
#179
0p
#180
0$
0%
0&
0(
1*
1+
0,
0-
0.
1/
01
0F
b0001011 I
1K
1M
0O
0P
1S
0T
1Y
b0000010 Z
b0100000000000000 [
b0011010001100110 \
b0011010001100110 e
0h
0i
0j
b0000011101011100 k
0l
1p
0r
0s
0t
b0000011101011100 u
0x
0y
#181
0p
#182
0'
0+
12
b0011010111001100 8
b0001010 9
b0011010001100110 :
b0011010001100110 @
0K
0M
1O
1P
1Q
b0000001 Z
b0011100111101000 [
b0100000000000000 \
b0011100111101000 e
1p
b0011010111001100 |
b0001010 }
b000001110000101101000111000101000 ~
b0011100001011010 "!
#183
0p
#184
02
b0011100111101000 :
b0011100111101000 @
b0011010001100110 B
b0011010001100110 E
0Q
0S
1U
0V
1h
1j
b0100110011001100 k
1p
1s
1t
b0100110011001100 u
#185
0p
#186
b0011010001100110 6
b0011100111101000 B
b0011100111101000 E
0U
1V
1W
0X
1p
b000001100111011100100000010010000 ~
b0011001110111001 "!
#187
0p
#188
1$
1%
1&
1'
1(
0*
1,
1-
1.
0/
11
b0011100111101000 6
1F
1T
0W
1X
0Y
1i
1l
1p
1r
1x
1y
b0001100 z
b000001110000101101000111000101000 ~
b0011100001011010 "!
#189
0p
#190
0$
0%
0&
0(
1*
1+
0,
0-
0.
1/
01
0F
b0001100 I
1K
1M
0O
0P
1S
0T
1Y
b0000010 Z
b0100000000000000 [
b0011010001100110 \
b0011010001100110 e
0i
0l
1p
0r
0x
0y
#191
0p
#192
0'
0+
12
b0011100001011010 8
b0001011 9
b0011010001100110 :
b0011010001100110 @
0K
0M
1O
1P
1Q
b0000001 Z
b0011100111101000 [
b0100000000000000 \
b0011100111101000 e
1p
b0011100001011010 |
b0001011 }
b000001110101010100111110011011000 ~
b0011101010101001 "!
#193
0p
#194
02
b0011100111101000 :
b0011100111101000 @
b0011010001100110 B
b0011010001100110 E
0Q
0S
1U
0V
1p
#195
0p
#196
b0011010001100110 6
b0011100111101000 B
b0011100111101000 E
0U
1V
1W
0X
1p
b000001101011101000001110100100100 ~
b0011010111010000 "!
#197
0p
#198
1$
1%
1&
1'
1(
0*
1,
1-
1.
0/
11
b0011100111101000 6
1F
1T
0W
1X
0Y
1i
1l
1p
1r
1x
1y
b0001101 z
b000001110101010100111110011011000 ~
b0011101010101001 "!
#199
0p
#200
0$
0%
0&
0(
1*
1+
0,
0-
0.
1/
01
0F
b0001101 I
1K
1M
0O
0P
1S
0T
1Y
b0000010 Z
b0100000000000000 [
b0011010001100110 \
b0011010001100110 e
0i
0l
1p
0r
0x
0y
#201
0p
#202
0'
0+
12
b0011101010101001 8
b0001100 9
b0011010001100110 :
b0011010001100110 @
0K
0M
1O
1P
1Q
b0000001 Z
b0011100111101000 [
b0100000000000000 \
b0011100111101000 e
1p
b0011101010101001 |
b0001100 }
b000001111001100000010101101110000 ~
b0011110011000000 "!
#203
0p
#204
02
b0011100111101000 :
b0011100111101000 @
b0011010001100110 B
b0011010001100110 E
0Q
0S
1U
0V
1p
#205
0p
#206
b0011010001100110 6
b0011100111101000 B
b0011100111101000 E
0U
1V
1W
0X
1p
b000001101111011010001010010011110 ~
b0011011110110100 "!
#207
0p
#208
1$
1%
1&
1'
1(
0*
1,
1-
1.
0/
11
b0011100111101000 6
1F
1T
0W
1X
0Y
1i
1l
1p
1r
1x
1y
b0001110 z
b000001111001100000010101101110000 ~
b0011110011000000 "!
#209
0p
#210
0$
0%
0&
0(
1*
1+
0,
0-
0.
1/
01
0F
b0001110 I
1K
1M
0O
0P
1S
0T
1Y
b0000010 Z
b0100000000000000 [
b0011010001100110 \
b0011010001100110 e
0h
0i
0j
b1100010101111011 k
0l
1p
0r
0s
0t
b1100010101111011 u
0x
0y
#211
0p
#212
0'
0+
12
b0011110011000000 8
b0001101 9
b0011010001100110 :
b0011010001100110 @
0K
0M
1O
1P
1Q
b0000001 Z
b0011100111101000 [
b0100000000000000 \
b0011100111101000 e
1p
b0011110011000000 |
b0001101 }
b000001111101010010010111101001000 ~
b0011111010100100 "!
#213
0p
#214
02
b0011100111101000 :
b0011100111101000 @
b0011010001100110 B
b0011010001100110 E
0Q
0S
1U
0V
1p
#215
0p
#216
b0011010001100110 6
b0011100111101000 B
b0011100111101000 E
0U
1V
1W
0X
1p
b000001110010110101001010111001000 ~
b0011100101101010 "!
#217
0p
#218
1$
1%
1&
1'
1(
0*
1,
1-
1.
0/
11
b0011100111101000 6
1F
1T
0W
1X
0Y
1i
1l
1p
1r
1x
1y
b0001111 z
b000001111101010010010111101001000 ~
b0011111010100100 "!
#219
0p
#220
0$
0%
0&
0(
1*
0,
0-
0.
1/
01
05
b1100010101111011 7
0F
0G
1H
b0001111 I
0L
1M
0O
0P
1S
0T
1Y
b0000010 Z
b0100000000000000 [
b0011010001100110 \
b0011010001100110 e
0l
0n
1o
1p
0v
1w
0x
0y
b000000000000000000000000000000000 ~
b0000000000000000 "!
#221
0p
#222
b0011010001100110 :
b0011010001100110 @
1p
b0011111010100100 |
b0001110 }
#223
0p
